%YAML 1.1
%TAG !u! tag:unity3d.com,2011:
--- !u!1 &3982524191522672830
GameObject:
  m_ObjectHideFlags: 0
  m_CorrespondingSourceObject: {fileID: 0}
  m_PrefabInstance: {fileID: 0}
  m_PrefabAsset: {fileID: 0}
  serializedVersion: 6
  m_Component:
  - component: {fileID: 2017927234091381813}
  - component: {fileID: 6010890656238226887}
  - component: {fileID: 8696361136733640348}
  - component: {fileID: 3565502613863621737}
  m_Layer: 0
  m_Name: CollectibleHealth
  m_TagString: Untagged
  m_Icon: {fileID: 0}
  m_NavMeshLayer: 0
  m_StaticEditorFlags: 0
  m_IsActive: 1
--- !u!4 &2017927234091381813
Transform:
  m_ObjectHideFlags: 0
  m_CorrespondingSourceObject: {fileID: 0}
  m_PrefabInstance: {fileID: 0}
  m_PrefabAsset: {fileID: 0}
  m_GameObject: {fileID: 3982524191522672830}
  m_LocalRotation: {x: 0, y: 0, z: 0, w: 1}
  m_LocalPosition: {x: -6.57, y: -2.43, z: 0}
  m_LocalScale: {x: 1, y: 1, z: 1}
  m_Children: []
  m_Father: {fileID: 0}
  m_RootOrder: 0
  m_LocalEulerAnglesHint: {x: 0, y: 0, z: 0}
--- !u!212 &6010890656238226887
SpriteRenderer:
  m_ObjectHideFlags: 0
  m_CorrespondingSourceObject: {fileID: 0}
  m_PrefabInstance: {fileID: 0}
  m_PrefabAsset: {fileID: 0}
  m_GameObject: {fileID: 3982524191522672830}
  m_Enabled: 1
  m_CastShadows: 0
  m_ReceiveShadows: 0
  m_DynamicOccludee: 1
  m_MotionVectors: 1
  m_LightProbeUsage: 1
  m_ReflectionProbeUsage: 1
  m_RenderingLayerMask: 1
  m_RendererPriority: 0
  m_Materials:
  - {fileID: 10754, guid: 0000000000000000f000000000000000, type: 0}
  m_StaticBatchInfo:
    firstSubMesh: 0
    subMeshCount: 0
  m_StaticBatchRoot: {fileID: 0}
  m_ProbeAnchor: {fileID: 0}
  m_LightProbeVolumeOverride: {fileID: 0}
  m_ScaleInLightmap: 1
  m_ReceiveGI: 1
  m_PreserveUVs: 0
  m_IgnoreNormalsForChartDetection: 0
  m_ImportantGI: 0
  m_StitchLightmapSeams: 1
  m_SelectedEditorRenderState: 0
  m_MinimumChartSize: 4
  m_AutoUVMaxDistance: 0.5
  m_AutoUVMaxAngle: 89
  m_LightmapParameters: {fileID: 0}
  m_SortingLayerID: 0
  m_SortingLayer: 0
  m_SortingOrder: 0
  m_Sprite: {fileID: 21300000, guid: 00e89d1057578a342b22583144a5ee03, type: 3}
  m_Color: {r: 1, g: 1, b: 1, a: 1}
  m_FlipX: 0
  m_FlipY: 0
  m_DrawMode: 0
  m_Size: {x: 4, y: 4}
  m_AdaptiveModeThreshold: 0.5
  m_SpriteTileMode: 0
  m_WasSpriteAssigned: 1
  m_MaskInteraction: 0
  m_SpriteSortPoint: 0
--- !u!60 &8696361136733640348
PolygonCollider2D:
  m_ObjectHideFlags: 0
  m_CorrespondingSourceObject: {fileID: 0}
  m_PrefabInstance: {fileID: 0}
  m_PrefabAsset: {fileID: 0}
  m_GameObject: {fileID: 3982524191522672830}
  m_Enabled: 1
  m_Density: 1
  m_Material: {fileID: 0}
  m_IsTrigger: 1
  m_UsedByEffector: 0
  m_UsedByComposite: 0
  m_Offset: {x: 0, y: 0}
  m_SpriteTilingProperty:
    border: {x: 0, y: 0, z: 0, w: 0}
    pivot: {x: 0.5, y: 0.5}
    oldSize: {x: 4, y: 4}
    newSize: {x: 4, y: 4}
    adaptiveTilingThreshold: 0.5
    drawMode: 0
    adaptiveTiling: 0
  m_AutoTiling: 0
  m_Points:
    m_Paths:
    - - {x: 0.421875, y: -1.765625}
      - {x: 0.90625, y: -1.484375}
      - {x: 1.03125, y: -1.359375}
      - {x: 1.171875, y: -1.171875}
      - {x: 1.359375, y: -0.90625}
      - {x: 1.515625, y: -0.546875}
      - {x: 1.546875, y: -0.328125}
      - {x: 1.546875, y: 0.015625}
      - {x: 1.5, y: 0.171875}
      - {x: 1.328125, y: 0.4375}
      - {x: 1.546875, y: 0.609375}
      - {x: 1.5, y: 0.75}
      - {x: 1.59375, y: 0.875}
      - {x: 1.609375, y: 0.953125}
      - {x: 1.59375, y: 1.125}
      - {x: 1.515625, y: 1.234375}
      - {x: 1.21875, y: 1.234375}
      - {x: 1.15625, y: 1.296875}
      - {x: 0.96875, y: 1.328125}
      - {x: 0.859375, y: 1.59375}
      - {x: 0.78125, y: 1.625}
      - {x: 0.703125, y: 1.625}
      - {x: 0.625, y: 1.515625}
      - {x: 0.546875, y: 1.375}
      - {x: 0.328125, y: 1.46875}
      - {x: -0.21875, y: 1.46875}
      - {x: -0.484375, y: 1.421875}
      - {x: -0.671875, y: 1.359375}
      - {x: -1.078125, y: 1.171875}
      - {x: -1.40625, y: 0.9375}
      - {x: -1.8125, y: 0.484375}
      - {x: -1.984375, y: 0.140625}
      - {x: -2, y: 0.03125}
      - {x: -2, y: -1.125}
      - {x: -1.875, y: -1.65625}
      - {x: -1.75, y: -1.765625}
      - {x: -1.625, y: -1.765625}
      - {x: -1.21875, y: -1.59375}
      - {x: -1.125, y: -1.640625}
      - {x: -0.34375, y: -1.765625}
--- !u!114 &3565502613863621737
MonoBehaviour:
  m_ObjectHideFlags: 0
  m_CorrespondingSourceObject: {fileID: 0}
  m_PrefabInstance: {fileID: 0}
  m_PrefabAsset: {fileID: 0}
  m_GameObject: {fileID: 3982524191522672830}
  m_Enabled: 1
  m_EditorHideFlags: 0
  m_Script: {fileID: 11500000, guid: e97e09893355d41b09924f8b8c94824e, type: 3}
  m_Name: 
  m_EditorClassIdentifier: 
